# device: Atmel maXTouch Touchpad
# bit: 0B 00 00 00 00 00 00 00
# key: 00 00 00 00 00 00 00 00 00 00 00 00 00 00 00 00 00 00 00 00 00 00 00 00 00 00 00 00 00 00 00 00 00 00 01 00 00 00 00 00 20 E5 00 00 00 00 00 00 00 00 00 00 00 00 00 00 00 00 00 00 00 00 00 00 00 00 00 00 00 00 00 00 00 00 00 00 00 00 00 00 00 00 00 00 00 00 00 00 00 00 00 00 00 00 00 00
# rel: 00 00 00 00 00 00 00 00
# abs: 03 00 00 01 00 80 61 06
# led: 00 00 00 00 00 00 00 00
# prp: 05 00 00 00 00 00 00 00
# absinfo: 0 0 2039 0 0 20
# absinfo: 1 0 1359 0 0 20
# absinfo: 24 0 255 0 0 0
# absinfo: 47 0 9 0 0 0
# absinfo: 48 0 1878 0 0 0
# absinfo: 53 0 2039 0 0 20
# absinfo: 54 0 1359 0 0 20
# absinfo: 57 0 65535 0 0 0
# absinfo: 58 0 255 0 0 0
E: 164.880389 0003 002f 0
E: 164.880389 0003 0030 318
E: 164.880389 0003 0031 0
E: 164.880389 0003 0032 0
E: 164.880389 0003 0033 0
E: 164.880389 0003 0034 0
E: 164.880389 0003 0035 1037
E: 164.880389 0003 0036 208
E: 164.880389 0003 0037 0
E: 164.880389 0003 0038 0
E: 164.880389 0003 0039 73
E: 164.880389 0003 003a 35
E: 164.880389 0003 003b 0
E: 164.880389 0003 002f 1
E: 164.880389 0003 0039 -1
E: 164.880389 0003 002f 2
E: 164.880389 0003 0039 -1
E: 164.880389 0003 002f 3
E: 164.880389 0003 0039 -1
E: 164.880389 0003 002f 4
E: 164.880389 0003 0039 -1
E: 164.880389 0003 002f 5
E: 164.880389 0003 0039 -1
E: 164.880389 0003 002f 6
E: 164.880389 0003 0039 -1
E: 164.880389 0003 002f 7
E: 164.880389 0003 0039 -1
E: 164.880389 0003 002f 8
E: 164.880389 0003 0039 -1
E: 164.880389 0003 002f 9
E: 164.880389 0003 0039 -1
E: 164.880389 0003 002f 0
E: 164.880389 0001 0145 1
E: 164.880389 0001 014a 1
E: 164.880389 0000 0000 0
E: 164.886737 0003 0035 1036
E: 164.886746 0003 0000 1036
E: 164.886750 0000 0000 0
E: 164.893689 0003 003a 34
E: 164.893693 0003 0030 290
E: 164.893696 0003 002f 1
E: 164.893698 0003 0039 74
E: 164.893701 0003 0035 828
E: 164.893703 0003 0036 779
E: 164.893705 0003 003a 28
E: 164.893706 0003 0030 258
E: 164.893710 0001 0145 0
E: 164.893713 0001 014d 1
E: 164.893719 0003 0018 34
E: 164.893721 0000 0000 0
E: 164.900092 0003 002f 0
E: 164.900094 0003 003a 30
E: 164.900096 0003 0030 258
E: 164.900103 0003 002f 1
E: 164.900104 0003 003a 31
E: 164.900106 0003 0030 318
E: 164.900118 0003 0018 30
E: 164.900120 0000 0000 0
E: 164.906423 0003 002f 0
E: 164.906426 0003 003a 29
E: 164.906436 0003 002f 1
E: 164.906438 0003 0036 780
E: 164.906442 0003 0030 290
E: 164.906454 0003 0018 29
E: 164.906456 0000 0000 0
E: 164.912861 0003 002f 0
E: 164.912864 0003 0036 209
E: 164.912867 0003 003a 27
E: 164.912871 0003 0030 224
E: 164.912879 0003 002f 1
E: 164.912881 0003 0036 782
E: 164.912883 0003 003a 30
E: 164.912895 0003 0001 209
E: 164.912898 0003 0018 27
E: 164.912900 0000 0000 0
E: 164.919218 0003 002f 0
E: 164.919221 0003 0036 210
E: 164.919225 0003 003a 31
E: 164.919228 0003 0030 258
E: 164.919237 0003 002f 1
E: 164.919239 0003 0036 786
E: 164.919242 0003 003a 31
E: 164.919256 0003 0001 210
E: 164.919260 0003 0018 31
E: 164.919263 0000 0000 0
E: 164.925559 0003 002f 0
E: 164.925562 0003 0036 213
E: 164.925565 0003 0030 290
E: 164.925570 0003 002f 1
E: 164.925572 0003 0035 829
E: 164.925574 0003 0036 796
E: 164.925576 0003 003a 27
E: 164.925578 0003 0030 258
E: 164.925586 0003 0001 213
E: 164.925589 0000 0000 0
E: 164.931881 0003 002f 0
E: 164.931883 0003 0035 1035
E: 164.931886 0003 0036 222
E: 164.931888 0003 003a 29
E: 164.931889 0003 0030 318
E: 164.931894 0003 002f 1
E: 164.931896 0003 0035 832
E: 164.931898 0003 0036 821
E: 164.931900 0003 003a 29
E: 164.931907 0003 0000 1035
E: 164.931909 0003 0001 222
E: 164.931910 0003 0018 29
E: 164.931913 0000 0000 0
E: 164.938311 0003 002f 0
E: 164.938314 0003 0035 1033
E: 164.938318 0003 0036 246
E: 164.938321 0003 0030 290
E: 164.938327 0003 002f 1
E: 164.938329 0003 0036 860
E: 164.938339 0003 0000 1033
E: 164.938341 0003 0001 246
E: 164.938344 0000 0000 0
E: 164.944650 0003 002f 0
E: 164.944653 0003 0035 1028
E: 164.944666 0003 0036 292
E: 164.944669 0003 003a 31
E: 164.944677 0003 002f 1
E: 164.944679 0003 0035 829
E: 164.944681 0003 0036 911
E: 164.944688 0003 003a 27
E: 164.944691 0003 0030 290
E: 164.944706 0003 0000 1028
E: 164.944708 0003 0001 292
E: 164.944711 0003 0018 31
E: 164.944715 0000 0000 0
E: 164.951041 0003 002f 0
E: 164.951043 0003 0035 1019
E: 164.951046 0003 0036 351
E: 164.951048 0003 003a 30
E: 164.951054 0003 002f 1
E: 164.951055 0003 0035 825
E: 164.951057 0003 0036 967
E: 164.951059 0003 0030 258
E: 164.951065 0003 0000 1019
E: 164.951067 0003 0001 351
E: 164.951069 0003 0018 30
E: 164.951071 0000 0000 0
E: 164.957349 0003 002f 0
E: 164.957352 0003 0035 1008
E: 164.957355 0003 0036 395
E: 164.957358 0003 0030 258
E: 164.957365 0003 002f 1
E: 164.957367 0003 0036 994
E: 164.957369 0003 003a 26
E: 164.957378 0003 0000 1008
E: 164.957379 0003 0001 395
E: 164.957383 0000 0000 0
E: 164.963705 0003 002f 0
E: 164.963708 0003 0035 1001
E: 164.963711 0003 0036 421
E: 164.963713 0003 003a 31
E: 164.963715 0003 0030 290
E: 164.963721 0003 002f 1
E: 164.963723 0003 0035 822
E: 164.963725 0003 0036 1020
E: 164.963727 0003 003a 28
E: 164.963729 0003 0030 224
E: 164.963736 0003 0000 1001
E: 164.963738 0003 0001 421
E: 164.963740 0003 0018 31
E: 164.963742 0000 0000 0
E: 164.970075 0003 002f 0
E: 164.970078 0003 0035 1000
E: 164.970080 0003 0036 441
E: 164.970084 0003 0030 258
E: 164.970089 0003 002f 1
E: 164.970091 0003 0035 821
E: 164.970093 0003 0036 1037
E: 164.970095 0003 003a 27
E: 164.970097 0003 0030 258
E: 164.970104 0003 0000 1000
E: 164.970106 0003 0001 441
E: 164.970109 0000 0000 0
E: 164.976325 0003 002f 0
E: 164.976328 0003 0035 993
E: 164.976330 0003 0036 462
E: 164.976334 0003 0030 290
E: 164.976339 0003 002f 1
E: 164.976340 0003 0035 820
E: 164.976342 0003 0036 1058
E: 164.976344 0003 003a 29
E: 164.976346 0003 0030 290
E: 164.976353 0003 0000 993
E: 164.976355 0003 0001 462
E: 164.976358 0000 0000 0
E: 164.982696 0003 002f 0
E: 164.982700 0003 0035 988
E: 164.982702 0003 0036 485
E: 164.982704 0003 003a 30
E: 164.982709 0003 002f 1
E: 164.982711 0003 0035 819
E: 164.982713 0003 0036 1086
E: 164.982715 0003 003a 24
E: 164.982717 0003 0030 258
E: 164.982724 0003 0000 988
E: 164.982726 0003 0001 485
E: 164.982728 0003 0018 30
E: 164.982730 0000 0000 0
E: 164.989079 0003 002f 0
E: 164.989082 0003 0035 981
E: 164.989085 0003 0036 508
E: 164.989088 0003 003a 31
E: 164.989091 0003 0030 318
E: 164.989099 0003 002f 1
E: 164.989101 0003 0035 822
E: 164.989104 0003 0036 1111
E: 164.989106 0003 003a 25
E: 164.989118 0003 0000 981
E: 164.989122 0003 0001 508
E: 164.989125 0003 0018 31
E: 164.989128 0000 0000 0
E: 164.995442 0003 002f 0
E: 164.995445 0003 0035 980
E: 164.995447 0003 0036 526
E: 164.995451 0003 0030 290
E: 164.995456 0003 002f 1
E: 164.995457 0003 0035 816
E: 164.995459 0003 0036 1132
E: 164.995463 0003 003a 27
E: 164.995465 0003 0030 224
E: 164.995473 0003 0000 980
E: 164.995475 0003 0001 526
E: 164.995479 0000 0000 0
E: 165.001799 0003 002f 0
E: 165.001802 0003 0035 974
E: 165.001805 0003 0036 551
E: 165.001808 0003 003a 29
E: 165.001810 0003 0030 258
E: 165.001817 0003 002f 1
E: 165.001818 0003 0035 813
E: 165.001821 0003 0036 1148
E: 165.001824 0003 003a 29
E: 165.001827 0003 0030 258
E: 165.001837 0003 0000 974
E: 165.001840 0003 0001 551
E: 165.001842 0003 0018 29
E: 165.001845 0000 0000 0
E: 165.008114 0003 002f 0
E: 165.008117 0003 0035 971
E: 165.008120 0003 0036 566
E: 165.008123 0003 003a 27
E: 165.008130 0003 002f 1
E: 165.008131 0003 0035 809
E: 165.008134 0003 0036 1166
E: 165.008136 0003 003a 28
E: 165.008138 0003 0030 290
E: 165.008146 0003 0000 971
E: 165.008148 0003 0001 566
E: 165.008151 0003 0018 27
E: 165.008154 0000 0000 0
E: 165.014392 0003 002f 0
E: 165.014395 0003 0035 970
E: 165.014397 0003 0036 579
E: 165.014399 0003 003a 28
E: 165.014405 0003 002f 1
E: 165.014407 0003 0035 806
E: 165.014408 0003 0036 1183
E: 165.014410 0003 003a 29
E: 165.014417 0003 0000 970
E: 165.014419 0003 0001 579
E: 165.014422 0003 0018 28
E: 165.014424 0000 0000 0
E: 165.020742 0003 002f 0
E: 165.020745 0003 0035 968
E: 165.020747 0003 0036 593
E: 165.020749 0003 003a 30
E: 165.020755 0003 002f 1
E: 165.020756 0003 0036 1198
E: 165.020758 0003 003a 30
E: 165.020765 0003 0000 968
E: 165.020767 0003 0001 593
E: 165.020769 0003 0018 30
E: 165.020771 0000 0000 0
E: 165.027085 0003 002f 0
E: 165.027087 0003 0035 967
E: 165.027089 0003 0036 604
E: 165.027092 0003 003a 29
E: 165.027097 0003 002f 1
E: 165.027098 0003 0035 804
E: 165.027100 0003 0036 1219
E: 165.027102 0003 003a 25
E: 165.027104 0003 0030 224
E: 165.027110 0003 0000 967
E: 165.027112 0003 0001 604
E: 165.027115 0003 0018 29
E: 165.027116 0000 0000 0
E: 165.033447 0003 002f 0
E: 165.033450 0003 0035 964
E: 165.033452 0003 0036 617
E: 165.033455 0003 0030 318
E: 165.033461 0003 002f 1
E: 165.033462 0003 0035 802
E: 165.033464 0003 0036 1240
E: 165.033466 0003 003a 30
E: 165.033469 0003 0030 318
E: 165.033476 0003 0000 964
E: 165.033478 0003 0001 617
E: 165.033481 0000 0000 0
E: 165.040838 0003 002f 0
E: 165.040841 0003 0035 963
E: 165.040844 0003 0036 631
E: 165.040851 0003 002f 1
E: 165.040853 0003 0035 801
E: 165.040855 0003 0036 1253
E: 165.040858 0003 003a 27
E: 165.040860 0003 0030 258
E: 165.040867 0003 0000 963
E: 165.040869 0003 0001 631
E: 165.040872 0000 0000 0
E: 165.047503 0003 002f 0
E: 165.047506 0003 0035 962
E: 165.047508 0003 0036 648
E: 165.047510 0003 003a 31
E: 165.047516 0003 002f 1
E: 165.047517 0003 0035 802
E: 165.047519 0003 0036 1264
E: 165.047521 0003 003a 24
E: 165.047523 0003 0030 290
E: 165.047530 0003 0000 962
E: 165.047532 0003 0001 648
E: 165.047534 0003 0018 31
E: 165.047536 0000 0000 0
E: 165.054178 0003 002f 0
E: 165.054181 0003 0035 961
E: 165.054199 0003 0036 664
E: 165.054201 0003 003a 29
E: 165.054203 0003 0030 290
E: 165.054208 0003 002f 1
E: 165.054209 0003 0035 804
E: 165.054211 0003 0036 1275
E: 165.054213 0003 003a 22
E: 165.054215 0003 0030 224
E: 165.054221 0003 0000 961
E: 165.054223 0003 0001 664
E: 165.054225 0003 0018 29
E: 165.054227 0000 0000 0
E: 165.060963 0003 002f 0
E: 165.060966 0003 0035 960
E: 165.060968 0003 0036 679
E: 165.060971 0003 003a 27
E: 165.060973 0003 0030 258
E: 165.060978 0003 002f 1
E: 165.060979 0003 0036 1283
E: 165.060989 0003 0000 960
E: 165.060990 0003 0001 679
E: 165.060992 0003 0018 27
E: 165.060994 0000 0000 0
E: 165.067628 0003 002f 0
E: 165.067632 0003 0035 961
E: 165.067634 0003 0036 694
E: 165.067640 0003 002f 1
E: 165.067641 0003 0035 805
E: 165.067643 0003 0036 1290
E: 165.067645 0003 003a 18
E: 165.067652 0003 0000 961
E: 165.067654 0003 0001 694
E: 165.067657 0000 0000 0
E: 165.074380 0003 002f 0
E: 165.074384 0003 0036 705
E: 165.074386 0003 003a 28
E: 165.074393 0003 002f 1
E: 165.074395 0003 0035 807
E: 165.074397 0003 0036 1296
E: 165.074400 0003 003a 20
E: 165.074411 0003 0001 705
E: 165.074414 0003 0018 28
E: 165.074417 0000 0000 0
E: 165.081132 0003 002f 0
E: 165.081136 0003 0035 962
E: 165.081138 0003 0036 718
E: 165.081140 0003 003a 31
E: 165.081147 0003 002f 1
E: 165.081149 0003 0035 809
E: 165.081151 0003 0036 1302
E: 165.081154 0003 003a 18
E: 165.081162 0003 0000 962
E: 165.081164 0003 0001 718
E: 165.081167 0003 0018 31
E: 165.081169 0000 0000 0
E: 165.087805 0003 002f 0
E: 165.087808 0003 0035 965
E: 165.087810 0003 0036 729
E: 165.087818 0003 002f 1
E: 165.087820 0003 0036 1307
E: 165.087823 0003 003a 16
E: 165.087827 0003 0030 182
E: 165.087834 0003 0000 965
E: 165.087836 0003 0001 729
E: 165.087839 0000 0000 0
E: 165.094433 0003 002f 0
E: 165.094436 0003 0036 740
E: 165.094438 0003 003a 32
E: 165.094441 0003 0030 290
E: 165.094446 0003 002f 1
E: 165.094447 0003 0035 811
E: 165.094450 0003 0036 1312
E: 165.094452 0003 003a 15
E: 165.094462 0003 0001 740
E: 165.094465 0003 0018 32
E: 165.094467 0000 0000 0
E: 165.101070 0003 002f 0
E: 165.101073 0003 0035 967
E: 165.101076 0003 0036 751
E: 165.101079 0003 003a 33
E: 165.101087 0003 002f 1
E: 165.101089 0003 0035 813
E: 165.101092 0003 0036 1316
E: 165.101094 0003 003a 14
E: 165.101104 0003 0000 967
E: 165.101106 0003 0001 751
E: 165.101109 0003 0018 33
E: 165.101111 0000 0000 0
E: 165.107692 0003 002f 0
E: 165.107695 0003 0036 759
E: 165.107698 0003 003a 31
E: 165.107703 0003 002f 1
E: 165.107705 0003 0035 814
E: 165.107708 0003 0036 1319
E: 165.107718 0003 0001 759
E: 165.107720 0003 0018 31
E: 165.107722 0000 0000 0
E: 165.114328 0003 002f 0
E: 165.114332 0003 0035 968
E: 165.114335 0003 0036 767
E: 165.114344 0003 002f 1
E: 165.114345 0003 0035 816
E: 165.114348 0003 0036 1321
E: 165.114350 0003 003a 13
E: 165.114360 0003 0000 968
E: 165.114362 0003 0001 767
E: 165.114366 0000 0000 0
E: 165.120990 0003 002f 0
E: 165.120993 0003 0035 969
E: 165.120995 0003 0036 774
E: 165.120997 0003 003a 30
E: 165.121003 0003 002f 1
E: 165.121005 0003 0036 1324
E: 165.121013 0003 0000 969
E: 165.121015 0003 0001 774
E: 165.121017 0003 0018 30
E: 165.121020 0000 0000 0
E: 165.127617 0003 002f 0
E: 165.127619 0003 0035 970
E: 165.127622 0003 0036 785
E: 165.127625 0003 003a 29
E: 165.127631 0003 002f 1
E: 165.127633 0003 0035 817
E: 165.127635 0003 0036 1326
E: 165.127638 0003 003a 12
E: 165.127646 0003 0000 970
E: 165.127648 0003 0001 785
E: 165.127651 0003 0018 29
E: 165.127653 0000 0000 0
E: 165.134220 0003 002f 0
E: 165.134223 0003 0035 971
E: 165.134225 0003 0036 792
E: 165.134227 0003 003a 30
E: 165.134230 0003 0030 318
E: 165.134235 0003 002f 1
E: 165.134236 0003 0035 819
E: 165.134239 0003 0036 1328
E: 165.134240 0003 003a 10
E: 165.134249 0003 0000 971
E: 165.134251 0003 0001 792
E: 165.134253 0003 0018 30
E: 165.134255 0000 0000 0
E: 165.140869 0003 002f 0
E: 165.140873 0003 0035 974
E: 165.140876 0003 0036 802
E: 165.140878 0003 003a 31
E: 165.140881 0003 0030 290
E: 165.140888 0003 002f 1
E: 165.140889 0003 0035 820
E: 165.140891 0003 0036 1329
E: 165.140902 0003 0000 974
E: 165.140905 0003 0001 802
E: 165.140908 0003 0018 31
E: 165.140910 0000 0000 0
E: 165.147567 0003 002f 0
E: 165.147570 0003 0035 975
E: 165.147572 0003 0036 815
E: 165.147574 0003 003a 30
E: 165.147576 0003 0030 258
E: 165.147582 0003 002f 1
E: 165.147583 0003 0035 823
E: 165.147585 0003 0036 1331
E: 165.147587 0003 003a 8
E: 165.147595 0003 0000 975
E: 165.147597 0003 0001 815
E: 165.147599 0003 0018 30
E: 165.147601 0000 0000 0
E: 165.154271 0003 002f 0
E: 165.154274 0003 0035 976
E: 165.154276 0003 0036 824
E: 165.154283 0003 002f 1
E: 165.154284 0003 0035 825
E: 165.154287 0003 0036 1332
E: 165.154288 0003 003a 10
E: 165.154296 0003 0000 976
E: 165.154297 0003 0001 824
E: 165.154300 0000 0000 0
E: 165.161013 0003 002f 0
E: 165.161016 0003 0035 978
E: 165.161018 0003 0036 833
E: 165.161021 0003 003a 32
E: 165.161028 0003 002f 1
E: 165.161030 0003 0035 828
E: 165.161033 0003 0036 1334
E: 165.161036 0003 003a 8
E: 165.161046 0003 0000 978
E: 165.161049 0003 0001 833
E: 165.161051 0003 0018 32
E: 165.161054 0000 0000 0
E: 165.167553 0003 002f 0
E: 165.167556 0003 0035 979
E: 165.167558 0003 0036 841
E: 165.167561 0003 003a 29
E: 165.167567 0003 002f 1
E: 165.167569 0003 0035 834
E: 165.167570 0003 0036 1335
E: 165.167573 0003 003a 7
E: 165.167575 0003 0030 128
E: 165.167582 0003 0000 979
E: 165.167585 0003 0001 841
E: 165.167587 0003 0018 29
E: 165.167589 0000 0000 0
E: 165.174106 0003 002f 0
E: 165.174110 0003 0035 981
E: 165.174112 0003 0036 850
E: 165.174114 0003 003a 32
E: 165.174116 0003 0030 290
E: 165.174121 0003 002f 1
E: 165.174122 0003 0035 841
E: 165.174132 0003 0000 981
E: 165.174133 0003 0001 850
E: 165.174135 0003 0018 32
E: 165.174138 0000 0000 0
E: 165.179598 0003 002f 0
E: 165.179601 0003 0035 982
E: 165.179603 0003 0036 860
E: 165.179606 0003 0030 258
E: 165.179613 0003 0000 982
E: 165.179615 0003 0001 860
E: 165.179618 0000 0000 0
E: 165.184762 0003 0035 984
E: 165.184767 0003 0036 866
E: 165.184769 0003 003a 30
E: 165.184773 0003 0030 290
E: 165.184780 0003 0000 984
E: 165.184782 0003 0001 866
E: 165.184784 0003 0018 30
E: 165.184786 0000 0000 0
E: 165.189897 0003 0035 985
E: 165.189901 0003 0036 874
E: 165.189911 0003 0000 985
E: 165.189913 0003 0001 874
E: 165.189916 0000 0000 0
E: 165.195051 0003 0035 987
E: 165.195056 0003 0036 887
E: 165.195058 0003 003a 33
E: 165.195068 0003 0000 987
E: 165.195070 0003 0001 887
E: 165.195072 0003 0018 33
E: 165.195075 0000 0000 0
E: 165.200519 0003 0035 991
E: 165.200524 0003 0036 903
E: 165.200526 0003 003a 30
E: 165.200528 0003 0030 258
E: 165.200531 0003 002f 1
E: 165.200533 0003 0039 -1
E: 165.200536 0001 0145 1
E: 165.200539 0001 014d 0
E: 165.200542 0003 0000 991
E: 165.200544 0003 0001 903
E: 165.200547 0003 0018 30
E: 165.200548 0000 0000 0
E: 165.205271 0003 002f 0
E: 165.205274 0003 0035 994
E: 165.205276 0003 0036 918
E: 165.205278 0003 003a 29
E: 165.205285 0003 0000 994
E: 165.205288 0003 0001 918
E: 165.205289 0003 0018 29
E: 165.205291 0000 0000 0
E: 165.210334 0003 0036 930
E: 165.210346 0003 0001 930
E: 165.210355 0000 0000 0
E: 165.215577 0003 0036 947
E: 165.215581 0003 003a 27
E: 165.215589 0003 0001 947
E: 165.215591 0003 0018 27
E: 165.215593 0000 0000 0
E: 165.220659 0003 0036 960
E: 165.220663 0003 003a 25
E: 165.220670 0003 0001 960
E: 165.220672 0003 0018 25
E: 165.220674 0000 0000 0
E: 165.225937 0003 0035 995
E: 165.225941 0003 0036 971
E: 165.225943 0003 003a 26
E: 165.225952 0003 0000 995
E: 165.225955 0003 0001 971
E: 165.225958 0003 0018 26
E: 165.225961 0000 0000 0
E: 165.231091 0003 0036 984
E: 165.231095 0003 003a 25
E: 165.231105 0003 0001 984
E: 165.231108 0003 0018 25
E: 165.231110 0000 0000 0
E: 165.236754 0003 0035 996
E: 165.236758 0003 0036 997
E: 165.236760 0003 003a 21
E: 165.236763 0003 0030 224
E: 165.236773 0003 0000 996
E: 165.236775 0003 0001 997
E: 165.236779 0003 0018 21
E: 165.236782 0000 0000 0
E: 165.242097 0003 0035 994
E: 165.242101 0003 0036 1009
E: 165.242104 0003 003a 15
E: 165.242106 0003 0030 128
E: 165.242112 0003 0000 994
E: 165.242114 0003 0001 1009
E: 165.242116 0003 0018 15
E: 165.242118 0000 0000 0
E: 165.260849 0003 0039 -1
E: 165.260854 0001 014a 0
E: 165.260855 0001 0145 0
E: 165.260858 0003 0018 0
E: 165.260860 0000 0000 0
E: 165.261360 0003 002f 0
E: 165.261360 0003 0039 -1
E: 165.261360 0003 002f 1
E: 165.261360 0003 0039 -1
E: 165.261360 0003 002f 2
E: 165.261360 0003 0039 -1
E: 165.261360 0003 002f 3
E: 165.261360 0003 0039 -1
E: 165.261360 0003 002f 4
E: 165.261360 0003 0039 -1
E: 165.261360 0003 002f 5
E: 165.261360 0003 0039 -1
E: 165.261360 0003 002f 6
E: 165.261360 0003 0039 -1
E: 165.261360 0003 002f 7
E: 165.261360 0003 0039 -1
E: 165.261360 0003 002f 8
E: 165.261360 0003 0039 -1
E: 165.261360 0003 002f 9
E: 165.261360 0003 0039 -1
